{
  "name": "Sample branding",
  "description": "Sample branding plugin.",
  "category": "Examples",
  "icon": "bell",
  "color": "#F2DF0F",
  "ngModules": [
    "myapp.branding"
  ],
  "less": [
    "style/main.less"
  ],
  "js": [
    "index.js"
  ],
  "copy": [
    "img/*"
  ]
}
